%!PS-Adobe-3.0
%%Title: m33.h
%%For: Luca di Mare
%%Creator: a2ps version 4.14
%%CreationDate: Tue Apr 16 23:57:09 2019
%%BoundingBox: 24 24 571 818
%%DocumentData: Clean7Bit
%%Orientation: Landscape
%%Pages: 3
%%PageOrder: Ascend
%%DocumentMedia: A4 595 842 0 () ()
%%DocumentNeededResources: font Courier
%%+ font Courier-Bold
%%+ font Courier-BoldOblique
%%+ font Courier-Oblique
%%+ font Helvetica
%%+ font Helvetica-Bold
%%+ font Symbol
%%+ font Times-Bold
%%+ font Times-Roman
%%DocumentProcessColors: Black 
%%DocumentSuppliedResources: procset a2ps-a2ps-hdr
%%+ procset a2ps-black+white-Prolog
%%+ encoding ISO-8859-1Encoding
%%EndComments
/a2psdict 200 dict def
a2psdict begin
%%BeginProlog
%%Copyright: (c) 1988, 89, 90, 91, 92, 93 Miguel Santana
%%Copyright: (c) 1995, 96, 97, 98 Akim Demaille, Miguel Santana
% Check PostScript language level.
/languagelevel where {
  pop /gs_languagelevel languagelevel def
} {
  /gs_languagelevel 1 def
} ifelse

% EPSF import as in the Red Book
/BeginInclude {
  /b4_Inc_state save def    		% Save state for cleanup
  /dict_count countdictstack def	% Count objects on dict stack
  /op_count count 1 sub def		% Count objects on operand stack 
  userdict begin
    0 setgray 0 setlinecap
    1 setlinewidth 0 setlinejoin
    10 setmiterlimit [ ] 0 setdash newpath
    gs_languagelevel 1 ne {
      false setstrokeadjust false setoverprint 
    } if
} bind def

/EndInclude {
  count op_count sub { pos } repeat	% Clean up stacks
  countdictstack dict_count sub { end } repeat
  b4_Inc_state restore
} bind def

/BeginEPSF {
  BeginInclude
  /showpage { } def
} bind def

/EndEPSF {
  EndInclude
} bind def

% Page prefeed
/page_prefeed {         % bool -> -
  statusdict /prefeed known {
    statusdict exch /prefeed exch put
  } {
    pop
  } ifelse
} bind def

/deffont {
  findfont exch scalefont def
} bind def

/reencode_font {
  findfont reencode 2 copy definefont pop def
} bind def

% Function c-show (str => -)
% centers text only according to x axis.
/c-show { 
  dup stringwidth pop
  2 div neg 0 rmoveto
  show
} bind def

% Function l-show (str => -)
% prints texts so that it ends at currentpoint
/l-show {
  dup stringwidth pop neg 
  0 
  rmoveto show
} bind def

% center-fit show (str w => -)
% show centered, and scale currentfont so that the width is less than w
/cfshow {
  exch dup stringwidth pop
  % If the title is too big, try to make it smaller
  3 2 roll 2 copy
  gt
  { % if, i.e. too big
    exch div
    currentfont exch scalefont setfont
  } { % ifelse
    pop pop 
  }
  ifelse
  c-show			% center title
} bind def

% Return the y size of the current font
% - => fontsize
/currentfontsize {
  currentfont /FontType get 0 eq {
    currentfont /FontMatrix get 3 get
  }{
    currentfont /FontMatrix get 3 get 1000 mul
  } ifelse
} bind def

% reencode the font
% <encoding-vector> <fontdict> -> <newfontdict>
/reencode { %def
  dup length 5 add dict begin
    { %forall
      % <vector> <key> <val>
      1 index /FID ne 
      { def }{ pop pop } ifelse
    } forall
    /Encoding exch def % -

    % Use the font's bounding box to determine the ascent, descent,
    % and overall height; don't forget that these values have to be
    % transformed using the font's matrix.
    % We use `load' because sometimes BBox is executable, sometimes not.
    % Since we need 4 numbers an not an array avoid BBox from being executed
    /FontBBox load aload pop
    FontMatrix transform /Ascent exch def pop
    FontMatrix transform /Descent exch def pop
    /FontHeight Ascent Descent sub def

    % Get the underline position and thickness if they're defined.
    % Use 1 if they are not defined.
    currentdict /FontInfo 2 copy known
    { get
      /UnderlinePosition 2 copy % <FontInfo> /UP <FontInfo> /UP
      2 copy known
      { get }{ pop pop 1 } ifelse
      0 exch FontMatrix transform exch pop
      def % <FontInfo>

      /UnderlineThickness 2 copy % <FontInfo> /UT <FontInfo> /UT
      2 copy known
      { get }{ pop pop 1 } ifelse
      0 exch FontMatrix transform exch pop
      def % <FontInfo>
      pop % -
    }{ pop pop
    } ifelse

    currentdict
  end 
} bind def

% composite fonts for ASCII-EUC mixed strings
% Version 1.2 1/31/1990
% Original Ken'ichi HANDA (handa@etl.go.jp)
% Modified Norio Katayama (katayama@rd.nacsis.ac.jp),1998
% Extend & Fix Koji Nakamaru (maru@on.cs.keio.ac.jp), 1999
% Anyone can freely copy, modify, distribute this program.

/copyfont {	% font-dic extra-entry-count  copyfont  font-dic
	1 index maxlength add dict begin
	{	1 index /FID ne 2 index /UniqueID ne and
		{def} {pop pop} ifelse
	} forall
	currentdict
	end
} bind def

/compositefont { % ASCIIFontName EUCFontName RomanScale RomanOffset Rot(T/F) compositefont font
    /RomanRotation exch def
    /RomanOffset exch def
    /RomanScale exch def
    userdict /fixeucfont_dict known not {
	userdict begin
	    /fixeucfont_dict 2 dict begin
		/UpperByteEncoding [
		    16#00 1 16#20 { pop 0 } for
		    16#21 1 16#28 { 16#20 sub } for
		    16#29 1 16#2F { pop 0 } for
		    16#30 1 16#74 { 16#27 sub } for
		    16#75 1 16#FF { pop 0 } for
		] def
	        /LowerByteEncoding [
		    16#00 1 16#A0 { pop /.notdef } for
		    16#A1 1 16#FE { 16#80 sub 16 2 string cvrs
				    (cXX) dup 1 4 -1 roll
				    putinterval cvn } for
		    /.notdef
		] def
		currentdict
	    end def
	end
    } if
    findfont dup /FontType get 0 eq {
	14 dict begin
	    %
	    % 7+8 bit EUC font
	    %
	    12 dict begin
		/EUCFont exch def
		/FontInfo (7+8 bit EUC font) readonly def
		/PaintType 0 def
		/FontType 0 def
		/FontMatrix matrix def
		% /FontName
		/Encoding fixeucfont_dict /UpperByteEncoding get def
		/FMapType 2 def
		EUCFont /WMode known
		{ EUCFont /WMode get /WMode exch def }
		{ /WMode 0 def } ifelse
		/FDepVector [
		    EUCFont /FDepVector get 0 get
		    [ 16#21 1 16#28 {} for 16#30 1 16#74 {} for ]
		    {
			13 dict begin
			    /EUCFont EUCFont def
			    /UpperByte exch 16#80 add def	
			    % /FontName
			    /FontInfo (EUC lower byte font) readonly def
			    /PaintType 0 def
			    /FontType 3 def
			    /FontMatrix matrix def
			    /FontBBox {0 0 0 0} def
			    /Encoding
				fixeucfont_dict /LowerByteEncoding get def
			    % /UniqueID
			    % /WMode
			    /BuildChar {
				gsave
				exch dup /EUCFont get setfont
				/UpperByte get
				2 string
				dup 0 4 -1 roll put
				dup 1 4 -1 roll put
				dup stringwidth setcharwidth
				0 0 moveto show
				grestore
			    } bind def
			    currentdict
			end
			/lowerbytefont exch definefont
		    } forall
		] def
		currentdict
	    end
	    /eucfont exch definefont
	    exch
	    findfont 1 copyfont dup begin
		RomanRotation {
			/FontMatrix FontMatrix
			[ 0 RomanScale neg RomanScale 0 RomanOffset neg 0 ]
			matrix concatmatrix def
		}{
			/FontMatrix FontMatrix
			[ RomanScale 0 0 RomanScale 0 RomanOffset ] matrix concatmatrix
			def
			/CDevProc
			    {pop pop pop pop 0 exch -1000 exch 2 div 880} def
		} ifelse
	    end
	    /asciifont exch definefont
	    exch
	    /FDepVector [ 4 2 roll ] def
	    /FontType 0 def
	    /WMode 0 def
	    /FMapType 4 def
	    /FontMatrix matrix def
	    /Encoding [0 1] def
	    /FontBBox {0 0 0 0} def
%	    /FontHeight 1.0 def % XXXX
	    /FontHeight RomanScale 1.0 ge { RomanScale }{ 1.0 } ifelse def
	    /Descent -0.3 def   % XXXX
	    currentdict
	end
	/tmpfont exch definefont
	pop
	/tmpfont findfont
    }{
	pop findfont 0 copyfont
    } ifelse
} def	

/slantfont {	% FontName slant-degree  slantfont  font'
    exch findfont 1 copyfont begin
    [ 1 0 4 -1 roll 1 0 0 ] FontMatrix exch matrix concatmatrix
    /FontMatrix exch def
    currentdict
    end
} def

% Function print line number (<string> # -)
/# {
  gsave
    sx cw mul neg 2 div 0 rmoveto
    f# setfont
    c-show
  grestore
} bind def

% -------- Some routines to enlight plain b/w printings ---------

% Underline
% width --
/dounderline {
  currentpoint
  gsave
    moveto
    0 currentfont /Descent get currentfontsize mul rmoveto
    0 rlineto
    stroke
  grestore
} bind def

% Underline a string
% string --
/dounderlinestring {
  stringwidth pop
  dounderline
} bind def

/UL {
  /ul exch store
} bind def

% Draw a box of WIDTH wrt current font
% width --
/dobox {
  currentpoint
  gsave
    newpath
    moveto
    0 currentfont /Descent get currentfontsize mul rmoveto
    dup 0 rlineto
    0 currentfont /FontHeight get currentfontsize mul rlineto
    neg 0 rlineto
    closepath
    stroke
  grestore
} bind def

/BX {
  /bx exch store
} bind def

% Box a string
% string --
/doboxstring {
  stringwidth pop
  dobox
} bind def

%
% ------------- Color routines ---------------
%
/FG /setrgbcolor load def

% Draw the background
% width --
/dobackground {
  currentpoint
  gsave
    newpath
    moveto
    0 currentfont /Descent get currentfontsize mul rmoveto
    dup 0 rlineto
    0 currentfont /FontHeight get currentfontsize mul rlineto
    neg 0 rlineto
    closepath
    bgcolor aload pop setrgbcolor
    fill
  grestore
} bind def

% Draw bg for a string
% string --
/dobackgroundstring {
  stringwidth pop
  dobackground
} bind def


/BG {
  dup /bg exch store
  { mark 4 1 roll ] /bgcolor exch store } if
} bind def


/Show {
  bg { dup dobackgroundstring } if
  ul { dup dounderlinestring } if
  bx { dup doboxstring } if
  show
} bind def

% Function T(ab), jumps to the n-th tabulation in the current line
/T {
  cw mul x0 add
  bg { dup currentpoint pop sub dobackground } if
  ul { dup currentpoint pop sub dounderline } if
  bx { dup currentpoint pop sub dobox } if
  y0 moveto
} bind def

% Function n: move to the next line
/n {
  /y0 y0 bfs sub store
  x0 y0 moveto
} bind def

% Function N: show and move to the next line
/N {
  Show
  /y0 y0 bfs sub store
  x0 y0 moveto
} bind def

/S {
  Show
} bind def

%%BeginResource: procset a2ps-a2ps-hdr 2.0 2
%%Copyright: (c) 1988, 89, 90, 91, 92, 93 Miguel Santana
%%Copyright: (c) 1995, 96, 97, 98 Akim Demaille, Miguel Santana
% Function title: prints page header.
% <ct> <rt> <lt> are passed as argument
/title { 
  % 1. Draw the background
  x v get y v get moveto
  gsave
    0 th 2 div neg rmoveto 
    th setlinewidth
    0.95 setgray
    pw 0 rlineto stroke
  grestore
  % 2. Border it
  gsave
    0.7 setlinewidth
    pw 0 rlineto
    0 th neg rlineto
    pw neg 0 rlineto
    closepath stroke
  grestore
  % stk: ct rt lt
  x v get y v get th sub 1 add moveto
%%IncludeResource: font Helvetica
  fHelvetica fnfs 0.8 mul scalefont setfont
  % 3. The left title
  gsave
    dup stringwidth pop fnfs 0.8 mul add exch % leave space took on stack
    fnfs 0.8 mul hm rmoveto
    show			% left title
  grestore
  exch
  % stk: ct ltw rt
  % 4. the right title
  gsave
    dup stringwidth pop fnfs 0.8 mul add exch % leave space took on stack
    dup
    pw exch stringwidth pop fnfs 0.8 mul add sub
    hm
    rmoveto
    show			% right title
  grestore
  % stk: ct ltw rtw
  % 5. the center title
  gsave
    pw 3 1 roll
    % stk: ct pw ltw rtw
    3 copy 
    % Move to the center of the left room
    sub add 2 div hm rmoveto
    % What is the available space in here?
    add sub fnfs 0.8 mul sub fnfs 0.8 mul sub
    % stk: ct space_left
%%IncludeResource: font Helvetica-Bold
  fHelvetica-Bold fnfs scalefont setfont
    cfshow
  grestore
} bind def

% Function border: prints virtual page border
/border { %def
  gsave				% print four sides
    0 setgray
    x v get y v get moveto
    0.7 setlinewidth		% of the square
    pw 0 rlineto
    0 ph neg rlineto
    pw neg 0 rlineto
    closepath stroke
  grestore
} bind def

% Function water: prints a water mark in background
/water { %def
  gsave
    scx scy moveto rotate
%%IncludeResource: font Times-Bold
  fTimes-Bold 100 scalefont setfont
    .97 setgray
    dup stringwidth pop 2 div neg -50 rmoveto
    show
  grestore
} bind def

% Function rhead: prints the right header
/rhead {  %def
  lx ly moveto
  fHelvetica fnfs 0.8 mul scalefont setfont
  l-show
} bind def

% Function footer (cf rf lf -> -)
/footer {
  fHelvetica fnfs 0.8 mul scalefont setfont
  dx dy moveto
  show

  snx sny moveto
  l-show
  
  fnx fny moveto
  c-show
} bind def
%%EndResource
%%BeginResource: procset a2ps-black+white-Prolog 2.0 1

% Function T(ab), jumps to the n-th tabulation in the current line
/T { 
  cw mul x0 add y0 moveto
} bind def

% Function n: move to the next line
/n { %def
  /y0 y0 bfs sub store
  x0 y0 moveto
} bind def

% Function N: show and move to the next line
/N {
  Show
  /y0 y0 bfs sub store
  x0 y0 moveto
}  bind def

/S {
  Show
} bind def

/p {
  false UL
  false BX
  fCourier bfs scalefont setfont
  Show
} bind def

/sy {
  false UL
  false BX
  fSymbol bfs scalefont setfont
  Show
} bind def

/k {
  false UL
  false BX
  fCourier-Oblique bfs scalefont setfont
  Show
} bind def

/K {
  false UL
  false BX
  fCourier-Bold bfs scalefont setfont
  Show
} bind def

/c {
  false UL
  false BX
  fCourier-Oblique bfs scalefont setfont
  Show
} bind def

/C {
  false UL
  false BX
  fCourier-BoldOblique bfs scalefont setfont
  Show 
} bind def

/l {
  false UL
  false BX
  fHelvetica bfs scalefont setfont
  Show
} bind def

/L {
  false UL
  false BX
  fHelvetica-Bold bfs scalefont setfont
  Show 
} bind def

/str{
  false UL
  false BX
  fTimes-Roman bfs scalefont setfont
  Show
} bind def

/e{
  false UL
  true BX
  fHelvetica-Bold bfs scalefont setfont
  Show
} bind def

%%EndResource
%%EndProlog
%%BeginSetup
%%IncludeResource: font Courier
%%IncludeResource: font Courier-Oblique
%%IncludeResource: font Courier-Bold
%%IncludeResource: font Times-Roman
%%IncludeResource: font Symbol
%%IncludeResource: font Courier-BoldOblique
%%BeginResource: encoding ISO-8859-1Encoding
/ISO-8859-1Encoding [
/.notdef /.notdef /.notdef /.notdef /.notdef /.notdef /.notdef /.notdef 
/.notdef /.notdef /.notdef /.notdef /.notdef /.notdef /.notdef /.notdef 
/.notdef /.notdef /.notdef /.notdef /.notdef /.notdef /.notdef /.notdef 
/.notdef /.notdef /.notdef /.notdef /.notdef /.notdef /.notdef /.notdef 
/space /exclam /quotedbl /numbersign /dollar /percent /ampersand /quoteright 
/parenleft /parenright /asterisk /plus /comma /minus /period /slash 
/zero /one /two /three /four /five /six /seven 
/eight /nine /colon /semicolon /less /equal /greater /question 
/at /A /B /C /D /E /F /G 
/H /I /J /K /L /M /N /O 
/P /Q /R /S /T /U /V /W 
/X /Y /Z /bracketleft /backslash /bracketright /asciicircum /underscore 
/quoteleft /a /b /c /d /e /f /g 
/h /i /j /k /l /m /n /o 
/p /q /r /s /t /u /v /w 
/x /y /z /braceleft /bar /braceright /asciitilde /.notdef 
/.notdef /.notdef /.notdef /.notdef /.notdef /.notdef /.notdef /.notdef 
/.notdef /.notdef /.notdef /.notdef /.notdef /.notdef /.notdef /.notdef 
/.notdef /.notdef /.notdef /.notdef /.notdef /.notdef /.notdef /.notdef 
/.notdef /.notdef /.notdef /.notdef /.notdef /.notdef /.notdef /.notdef 
/space /exclamdown /cent /sterling /currency /yen /brokenbar /section 
/dieresis /copyright /ordfeminine /guillemotleft /logicalnot /hyphen /registered /macron 
/degree /plusminus /twosuperior /threesuperior /acute /mu /paragraph /bullet 
/cedilla /onesuperior /ordmasculine /guillemotright /onequarter /onehalf /threequarters /questiondown 
/Agrave /Aacute /Acircumflex /Atilde /Adieresis /Aring /AE /Ccedilla 
/Egrave /Eacute /Ecircumflex /Edieresis /Igrave /Iacute /Icircumflex /Idieresis 
/Eth /Ntilde /Ograve /Oacute /Ocircumflex /Otilde /Odieresis /multiply 
/Oslash /Ugrave /Uacute /Ucircumflex /Udieresis /Yacute /Thorn /germandbls 
/agrave /aacute /acircumflex /atilde /adieresis /aring /ae /ccedilla 
/egrave /eacute /ecircumflex /edieresis /igrave /iacute /icircumflex /idieresis 
/eth /ntilde /ograve /oacute /ocircumflex /otilde /odieresis /divide 
/oslash /ugrave /uacute /ucircumflex /udieresis /yacute /thorn /ydieresis 
] def
%%EndResource
% Initialize page description variables.
/sh 595 def
/sw 842 def
/llx 24 def
/urx 818 def
/ury 571 def
/lly 24 def
/#copies 1 def
/th 15.000000 def
/fnfs 11 def
/bfs 8.005733 def
/cw 4.803440 def

% Dictionary for ISO-8859-1 support
/iso1dict 8 dict begin
  /fCourier ISO-8859-1Encoding /Courier reencode_font
  /fCourier-Bold ISO-8859-1Encoding /Courier-Bold reencode_font
  /fCourier-BoldOblique ISO-8859-1Encoding /Courier-BoldOblique reencode_font
  /fCourier-Oblique ISO-8859-1Encoding /Courier-Oblique reencode_font
  /fHelvetica ISO-8859-1Encoding /Helvetica reencode_font
  /fHelvetica-Bold ISO-8859-1Encoding /Helvetica-Bold reencode_font
  /fTimes-Bold ISO-8859-1Encoding /Times-Bold reencode_font
  /fTimes-Roman ISO-8859-1Encoding /Times-Roman reencode_font
currentdict end def
/bgcolor [ 0 0 0 ] def
/bg false def
/ul false def
/bx false def
% The font for line numbering
/f# /Helvetica findfont bfs .6 mul scalefont def
/fSymbol /Symbol findfont def
/hm fnfs 0.25 mul def
/pw
   cw 81.400000 mul
def
/ph
   501.959430 th add
def
/pmw urx llx sub pw 2 mul sub 1 div def
/pmh 0 def
/v 0 def
/x [
  0
  dup pmw add pw add
] def
/y [
  pmh ph add 0 mul ph add
  dup
] def
/scx sw 2 div def
/scy sh 2 div def
/snx urx def
/sny lly 2 add def
/dx llx def
/dy sny def
/fnx scx def
/fny dy def
/lx snx def
/ly ury fnfs 0.8 mul sub def
/sx 0 def
/tab 8 def
/x0 0 def
/y0 0 def
%%EndSetup

%%Page: (1-2) 1
%%BeginPageSetup
/pagesave save def
sh 0 translate 90 rotate
%%EndPageSetup
iso1dict begin
gsave
llx lly 12 add translate
/v 0 store
/x0 x v get 3.362408 add sx cw mul add store
/y0 y v get bfs th add sub store
x0 y0 moveto
(#  ifndef) K
( _M33_) p n
(#  define) K
( _M33_) p n
() N
() N
(#  include) K
( <typd.h>) p n
(#  include) K
( <cmath>) p n
() N
(// define   BS 9) c n
() p n
(//) c n
(//   0 3 6) N
(//   1 4 7) N
(//   2 5 8) N
(//) N
(//) N
() p n
(   ) S
(inline) K
( REAL_ det\( REAL_ *a \)) p n
(  {) N
(      REAL_ val;) N
(      REAL_ d[3];) N
() N
(      d[0]= a[4]*a[8]- a[5]*a[7]; ) N
(      d[1]= a[3]*a[8]- a[5]*a[6]; ) N
(      d[2]= a[3]*a[7]- a[4]*a[6];) N
() N
(      val=  a[0]*d[0]) N
(           -a[1]*d[1] ) N
(           +a[2]*d[2];) N
() N
() N
(      ) S
(return) K
( val;) p n
(  };) N
() N
(   ) S
(inline) K
( REAL_ ddet\( REAL_ *a, REAL_ *da \)) p n
(  {) N
(      REAL_ val;) N
(      REAL_ d[3];) N
(      REAL_ dd[3];) N
() N
(      d[0]= a[4]*a[8]- a[5]*a[7]; ) N
(      d[1]= a[3]*a[8]- a[5]*a[6]; ) N
(      d[2]= a[3]*a[7]- a[4]*a[6];) N
() N
(      dd[0]= da[4]*a[8]+ a[4]*da[8]- da[5]*a[7]- a[5]*da[7]; ) N
(      dd[1]= da[3]*a[8]+ a[3]*da[8]- da[5]*a[6]- a[5]*da[6]; ) N
(      dd[2]= da[3]*a[7]+ a[3]*da[7]- da[4]*a[6]- a[4]*da[6]; ) N
() N
(      val=  a[0]*dd[0]+ da[0]*d[0]) N
(           -a[1]*dd[1]- da[1]*d[1]  ) N
(           +a[2]*dd[2]+ da[2]*d[2];) N
(      ) N
(      ) S
(return) K
( val;) p n
(  };) N
() N
(   ) S
(inline) K
( REAL_ dot3\( REAL_ *a, REAL_ *b \)) p n
(  {) N
(      REAL_ w; ) N
(      w= a[0]*b[0]+ a[1]*b[1]+ a[2]*b[2];) N
(      ) S
(return) K
( w;) p n
(  }) N
() N
(   ) S
(inline) K
( ) p
(void) k
( inv33\( REAL_ *a, REAL_ *a1 \)) p n
(m33.h) (Page 1/6) (Apr 16, 19 23:16) title
border
/v 1 store
/x0 x v get 3.362408 add sx cw mul add store
/y0 y v get bfs th add sub store
x0 y0 moveto
(  {) p n
(      REAL_ w[9];) N
() N
(      w[0]=  a[4]*a[8]- a[5]*a[7];   ) S
(// \(2,2\)\(3,3\)- \(3,2\)\(2,3\)) c n
(      w[1]=  a[7]*a[2]- a[1]*a[8];   ) p
(// \(2,3\)\(3,1\)- \(3,3\)\(2,1\)) c n
(      w[2]=  a[1]*a[5]- a[4]*a[2];   ) p
(// \(2,1\)\(3,2\)- \(3,1\)\(2,2\)) c n
() p n
(      w[3]=  a[6]*a[5]- a[3]*a[8];   ) S
(// \(1,3\)\(3,2\)- \(1,2\)\(3,3\)) c n
(      w[4]=  a[0]*a[8]- a[2]*a[6];   ) p
(// \(1,1\)\(3,3\)- \(3,1\)\(1,3\)) c n
(      w[5]=  a[3]*a[2]- a[0]*a[5];   ) p
(// \(1,2\)\(3,1\)- \(1,1\)\(3,2\)) c n
() p n
(      w[6]=  a[3]*a[7]- a[4]*a[6];   ) S
(// \(1,2\)\(2,3\)- \(2,2\)\(1,3\)) c n
(      w[7]=  a[1]*a[6]- a[0]*a[7];   ) p
(// \(2,1\)\(1,3\)- \(1,1\)\(2,3\)) c n
(      w[8]=  a[0]*a[4]- a[1]*a[3];   ) p
(// \(1,1\)\(2,2\)- \(2,1\)\(1,2\)) c n
() p n
(      a1[0]= w[0];) N
(      a1[1]= w[1];) N
(      a1[2]= w[2];) N
(                ) N
(      a1[3]= w[3];) N
(      a1[4]= w[4];) N
(      a1[5]= w[5];) N
(                ) N
(      a1[6]= w[6];) N
(      a1[7]= w[7];) N
(      a1[8]= w[8];) N
() N
(      ) S
(return) K
(;) p n
(  };) N
() N
(   ) S
(inline) K
( ) p
(void) k
( dinv33\( REAL_ *a, REAL_ *da, REAL_ *a1 \)) p n
(  {) N
(      REAL_ w[9];) N
() N
(      w[0]=  da[4]*a[8]- da[5]*a[7]+ a[4]*da[8]- a[5]*da[7];   ) S
(// \(2,2\)\(3,3\)- \(3) c n
(,2\)\(2,3\)) N
(      w[1]=  da[7]*a[2]- da[1]*a[8]+ a[7]*da[2]- a[1]*da[8];   ) p
(// \(2,3\)\(3,1\)- \(3) c n
(,3\)\(2,1\)) N
(      w[2]=  da[1]*a[5]- da[4]*a[2]+ a[1]*da[5]- a[4]*da[2];   ) p
(// \(2,1\)\(3,2\)- \(3) c n
(,1\)\(2,2\)) N
() p n
(      w[3]=  da[6]*a[5]- da[3]*a[8]+ a[6]*da[5]- a[3]*da[8];   ) S
(// \(1,3\)\(3,2\)- \(1) c n
(,2\)\(3,3\)) N
(      w[4]=  da[0]*a[8]- da[2]*a[6]+ a[0]*da[8]- a[2]*da[6];   ) p
(// \(1,1\)\(3,3\)- \(3) c n
(,1\)\(1,3\)) N
(      w[5]=  da[3]*a[2]- da[0]*a[5]+ a[3]*da[2]- a[0]*da[5];   ) p
(// \(1,2\)\(3,1\)- \(1) c n
(,1\)\(3,2\)) N
() p n
(      w[6]=  da[3]*a[7]- da[4]*a[6]+ a[3]*da[7]- a[4]*da[6];   ) S
(// \(1,2\)\(2,3\)- \(2) c n
(,2\)\(1,3\)) N
(      w[7]=  da[1]*a[6]- da[0]*a[7]+ a[1]*da[6]- a[0]*da[7];   ) p
(// \(2,1\)\(1,3\)- \(1) c n
(,1\)\(2,3\)) N
(      w[8]=  da[0]*a[4]- da[1]*a[3]+ a[0]*da[4]- a[1]*da[3];   ) p
(// \(1,1\)\(2,2\)- \(2) c n
(,1\)\(1,2\)) N
() p n
(      a1[0]= w[0];) N
(      a1[1]= w[1];) N
(      a1[2]= w[2];) N
() N
(      a1[3]= w[3];) N
(      a1[4]= w[4];) N
(      a1[5]= w[5];) N
(m33.h) (Page 2/6) (Apr 16, 19 23:16) title
border
grestore
(Printed by Luca di Mare) rhead
(m33.h) (1/3) (Tuesday April 16, 2019) footer
end % of iso1dict
pagesave restore
showpage
%%Page: (3-4) 2
%%BeginPageSetup
/pagesave save def
sh 0 translate 90 rotate
%%EndPageSetup
iso1dict begin
gsave
llx lly 12 add translate
/v 0 store
/x0 x v get 3.362408 add sx cw mul add store
/y0 y v get bfs th add sub store
x0 y0 moveto
(               ) p n
(      a1[6]= w[6];) N
(      a1[7]= w[7];) N
(      a1[8]= w[8];) N
(      ) S
(return) K
(;) p n
(  };) N
() N
(   ) S
(inline) K
( ) p
(void) k
( inv330\( REAL_ *a, REAL_ *a1 \)) p n
(  {) N
(      REAL_ d= det\(a\);) N
(//    assert\( fabs\(d\) > 1.e-18 \);) c n
(      d= 1./d;) p n
() N
(      REAL_ w[9];) N
() N
(      w[0]=  a[4]*a[8]- a[5]*a[7];   ) S
(// \(2,2\)\(3,3\)- \(3,2\)\(2,3\)) c n
(      w[1]=  a[7]*a[2]- a[1]*a[8];   ) p
(// \(2,3\)\(3,1\)- \(3,3\)\(2,1\)) c n
(      w[2]=  a[1]*a[5]- a[4]*a[2];   ) p
(// \(2,1\)\(3,2\)- \(3,1\)\(2,2\)) c n
() p n
(      w[3]=  a[6]*a[5]- a[3]*a[8];   ) S
(// \(1,3\)\(3,2\)- \(1,2\)\(3,3\)) c n
(      w[4]=  a[0]*a[8]- a[2]*a[6];   ) p
(// \(1,1\)\(3,3\)- \(3,1\)\(1,3\)) c n
(      w[5]=  a[3]*a[2]- a[0]*a[5];   ) p
(// \(1,2\)\(3,1\)- \(1,1\)\(3,2\)) c n
() p n
(      w[6]=  a[3]*a[7]- a[4]*a[6];   ) S
(// \(1,2\)\(2,3\)- \(2,2\)\(1,3\)) c n
(      w[7]=  a[1]*a[6]- a[0]*a[7];   ) p
(// \(2,1\)\(1,3\)- \(1,1\)\(2,3\)) c n
(      w[8]=  a[0]*a[4]- a[1]*a[3];   ) p
(// \(1,1\)\(2,2\)- \(2,1\)\(1,2\)) c n
() p n
(      a1[0]= w[0]*d;) N
(      a1[1]= w[1]*d;) N
(      a1[2]= w[2]*d;) N
() N
(      a1[3]= w[3]*d;) N
(      a1[4]= w[4]*d;) N
(      a1[5]= w[5]*d;) N
() N
(      a1[6]= w[6]*d;) N
(      a1[7]= w[7]*d;) N
(      a1[8]= w[8]*d;) N
() N
(      ) S
(return) K
(;) p n
(  };) N
() N
() N
(   ) S
(inline) K
( ) p
(void) k
( dot33\( REAL_ *a, REAL_ *x, REAL_ *y \)) p n
(  {) N
(      REAL_ w[3];) N
() N
(      w[0]= a[0]* x[0]+ a[3]* x[1]+ a[6]* x[2];) N
(      w[1]= a[1]* x[0]+ a[4]* x[1]+ a[7]* x[2];) N
(      w[2]= a[2]* x[0]+ a[5]* x[1]+ a[8]* x[2];) N
() N
(      y[0]= w[0];) N
(      y[1]= w[1];) N
(      y[2]= w[2];) N
() N
(      ) S
(return) K
(;) p n
(  }) N
() N
(   ) S
(inline) K
( ) p
(void) k
( mdot33\( REAL_ *a, REAL_ *x, REAL_ *y \)) p n
(  {) N
(      REAL_ w[9];) N
() N
(m33.h) (Page 3/6) (Apr 16, 19 23:16) title
border
/v 1 store
/x0 x v get 3.362408 add sx cw mul add store
/y0 y v get bfs th add sub store
x0 y0 moveto
(      w[0]= a[0]*x[0]+ a[3]*x[1]+ a[6]*x[2];) p n
(      w[1]= a[1]*x[0]+ a[4]*x[1]+ a[7]*x[2];) N
(      w[2]= a[2]*x[0]+ a[5]*x[1]+ a[8]*x[2];) N
() N
(      w[3]= a[0]*x[3]+ a[3]*x[4]+ a[6]*x[5];) N
(      w[4]= a[1]*x[3]+ a[4]*x[4]+ a[7]*x[5];) N
(      w[5]= a[2]*x[3]+ a[5]*x[4]+ a[8]*x[5];) N
() N
(      w[6]= a[0]*x[6]+ a[3]*x[7]+ a[6]*x[8];) N
(      w[7]= a[1]*x[6]+ a[4]*x[7]+ a[7]*x[8];) N
(      w[8]= a[2]*x[6]+ a[5]*x[7]+ a[8]*x[8];) N
() N
(      y[0]= w[0];) N
(      y[1]= w[1];) N
(      y[2]= w[2];) N
() N
(      y[3]= w[3];) N
(      y[4]= w[4];) N
(      y[5]= w[5];) N
() N
(      y[6]= w[6];) N
(      y[7]= w[7];) N
(      y[8]= w[8];) N
() N
(      ) S
(return) K
(;) p n
(  };) N
() N
(   ) S
(inline) K
( ) p
(void) k
( mgs33\( REAL_ *c, REAL_ *b, REAL_ *d \)) p n
(  {) N
(      d[0]-= \(c[0]* b[0]+ c[3]* b[1]+ c[6]* b[2]\);) N
(      d[1]-= \(c[1]* b[0]+ c[4]* b[1]+ c[7]* b[2]\);) N
(      d[2]-= \(c[2]* b[0]+ c[5]* b[1]+ c[8]* b[2]\);) N
() N
(      d[3]-= \(c[0]* b[3]+ c[3]* b[4]+ c[6]* b[5]\);) N
(      d[4]-= \(c[1]* b[3]+ c[4]* b[4]+ c[7]* b[5]\);) N
(      d[5]-= \(c[2]* b[3]+ c[5]* b[4]+ c[8]* b[5]\);) N
() N
(      d[6]-= \(c[0]* b[6]+ c[3]* b[7]+ c[6]* b[8]\);) N
(      d[7]-= \(c[1]* b[6]+ c[4]* b[7]+ c[7]* b[8]\);) N
(      d[8]-= \(c[2]* b[6]+ c[5]* b[7]+ c[8]* b[8]\);) N
() N
(      ) S
(return) K
(;) p n
(  }) N
() N
(   ) S
(inline) K
( ) p
(void) k
( mgs3\( REAL_ *c, REAL_ *b, REAL_ *d \)) p n
(  {) N
() N
(      d[0]-= \(c[0]* b[0]+ c[3]* b[1]+ c[6]* b[2]\);) N
(      d[1]-= \(c[1]* b[0]+ c[4]* b[1]+ c[7]* b[2]\);) N
(      d[2]-= \(c[2]* b[0]+ c[5]* b[1]+ c[8]* b[2]\);) N
() N
(      ) S
(return) K
(;) p n
(  }) N
() N
() N
() N
(   ) S
(inline) K
( ) p
(void) k
( ldl3f\( REAL_ *a \)) p n
(  {) N
(/*) c n
(          a b c) N
(          b d e) N
(          c e f) N
(m33.h) (Page 4/6) (Apr 16, 19 23:16) title
border
grestore
(Printed by Luca di Mare) rhead
(m33.h) (2/3) (Tuesday April 16, 2019) footer
end % of iso1dict
pagesave restore
showpage
%%Page: (5-6) 3
%%BeginPageSetup
/pagesave save def
sh 0 translate 90 rotate
%%EndPageSetup
iso1dict begin
gsave
llx lly 12 add translate
/v 0 store
/x0 x v get 3.362408 add sx cw mul add store
/y0 y v get bfs th add sub store
x0 y0 moveto
( */) c n
(      REAL_ d;) p n
(      ) N
(      a[0]=    1./a[0]; ) S
(// a=  1./a; ) c n
() p n
(      d=     a[1]*a[0]; ) S
(// g= -b*a;      ) c n
(      a[3]-= a[1]*d;    ) p
(// d+= b*g;) c n
(      a[4]-= a[2]*d;    ) p
(// e+= c*g;) c n
(      a[1]=  d;         ) p
(// b=  g;) c n
() p n
(      d=     a[2]*a[0]; ) S
(// g= -c*a;) c n
(      a[5]-= a[2]*d;    ) p
(// f+= c*g;) c n
(      a[2]=  d;         ) p
(// c=  g;) c n
() p n
(      a[3]=    1./a[3]; ) S
(// d=  1./d;) c n
() p n
(      d=     a[4]*a[3]; ) S
(// g= -e*d;) c n
(      a[5]-= a[4]*d;    ) p
(// f+= e*g;) c n
(      a[4]=  d;         ) p
(// e=  g;) c n
() p n
(      a[5]=    1./a[5]; ) S
(// f= 1./f;) c n
() p n
(      ) S
(return) K
(;) p n
( ) N
(  }) N
() N
(   ) S
(inline) K
( ) p
(void) k
( ldl3s\( REAL_ *a, REAL_ *b \)) p n
(  {) N
(      b[1]-= a[1]*b[0]; ) N
(      b[2]-= a[2]*b[0]; ) N
(      b[2]-= a[4]*b[1];) N
() N
(      b[0]*= a[0];) N
(      b[1]*= a[3];) N
(      b[2]*= a[5];) N
() N
(      b[1]-= a[4]*b[2];) N
(      b[0]-= a[2]*b[2];) N
(      b[0]-= a[1]*b[1];) N
() N
(      ) S
(return) K
(;) p n
(  }) N
() N
(   ) S
(inline) K
( ) p
(void) k
( cross3\( REAL_ *x, REAL_ *y, REAL_ *z \)) p n
(  {) N
(      z[0]= x[1]*y[2]- x[2]*y[1];) N
(      z[1]= x[2]*y[0]- x[0]*y[2];) N
(      z[2]= x[0]*y[1]- x[1]*y[0];) N
(  }) N
() N
(   ) S
(inline) K
( REAL_ norm32\( REAL_ *x \)) p n
(  {) N
(      REAL_ val= x[0]*x[0]+ x[1]*x[1]+ x[2]*x[2];) N
(      ) S
(return) K
( sqrt\(val\);) p n
(  }) N
() N
(   ) S
(inline) K
( ) p
(void) k
( scal3\( REAL_ a, REAL_ *x \)) p n
(  {) N
(      x[0]*= a;) N
(      x[1]*= a;) N
(      x[2]*= a;) N
(  }) N
(m33.h) (Page 5/6) (Apr 16, 19 23:16) title
border
/v 1 store
/x0 x v get 3.362408 add sx cw mul add store
/y0 y v get bfs th add sub store
x0 y0 moveto
() p n
(   ) S
(inline) K
( ) p
(void) k
( idv3\( REAL_ *v, REAL_ *w \)) p n
(  {) N
(      w[0]= v[0];) N
(      w[1]= v[1];) N
(      w[2]= v[2];) N
() N
(  }) N
() N
(   ) S
(inline) K
( ) p
(void) k
( qrf23\( REAL_ *v0, REAL_ *v1, REAL_ *q0, REAL_ *q1, REAL_ *r \)) p n
(  {) N
(      idv3\( v0,q0 \);) N
(//    r[0]= norm32\( q0 \); assert\( fabs\(r[0]\)>1.e-9 \);scal3\( 1./r[0],q0 \);) c n
(      r[0]= norm32\( q0 \); scal3\( 1./r[0],q0 \);) p n
(       ) N
(      r[1]= dot3\( q0,v1 \);) N
() N
(      q1[0]= v1[0]- r[1]*q0[0];) N
(      q1[1]= v1[1]- r[1]*q0[1];) N
(      q1[2]= v1[2]- r[1]*q0[2];) N
(//    r[2]= norm32\( q1 \); assert\( fabs\(r[2]\)>1.e-9\);scal3\( 1./r[2],q1 \);   ) c n
(      r[2]= norm32\( q1 \); scal3\( 1./r[2],q1 \);   ) p n
() N
(  }) N
() N
(   ) S
(inline) K
( ) p
(void) k
( qrs23\( REAL_ *q0, REAL_ *q1, REAL_ *r, REAL_ *x, REAL_ *b \)) p n
(  {) N
(      x[1]= dot3\( b,q1 \);) N
(      x[1]/= r[2];) N
(      x[0]= dot3\( b,q0 \);) N
(      x[0]-= r[1]*x[1];) N
(      x[0]/= r[0];) N
(  }) N
() N
(#  endif) K n
(m33.h) (Page 6/6) (Apr 16, 19 23:16) title
border
grestore
(Printed by Luca di Mare) rhead
(m33.h) (3/3) (Tuesday April 16, 2019) footer
end % of iso1dict
pagesave restore
showpage

%%Trailer
end
%%EOF
